{"hash":"75f4f27567cd63131b073086d2ef40fa2639b962","data":{"metadata":{"siteName":"Gridsome Blog","siteDescription":"A simple blog designed with Gridsome"},"posts":{"totalCount":6,"pageInfo":{"totalPages":2,"currentPage":2,"isFirst":false,"isLast":true},"edges":[{"node":{"id":"96b4de287d55766138561e7492878e13","title":"Markdown Test Page","timeToRead":9,"description":"A sample page with the most common elements of an article, including headings, paragraphs, lists, and images. Use it as a starting point for applying your own styles.","date":"1 January 2021","path":"/blog/markdown-test-page/"}},{"node":{"id":"62f9522399c225c6444c81edc767b2c9","title":"Writing In Markdown","timeToRead":3,"description":"Markdown post content stress test. See how your post content is being styled with Tailwind CSS.","date":"23 May 2019","path":"/blog/writing-in-markdown/"}},{"node":{"id":"8221c1a632a97ba7ee4e2ddb34ae7957","title":"Markdown styling","timeToRead":3,"description":"Markdown post content stress test. See how your post content is being styled with Tailwind CSS.","date":"21 May 2019","path":"/blog/markdown-styling/"}}]}},"context":{}}